<?xml version="1.0" encoding="UTF-8" standalone="no"?>
<!-- Created with Inkscape (http://www.inkscape.org/) -->

<svg
   width="16"
   height="16"
   viewBox="0 0 4.2333332 4.2333335"
   version="1.1"
   id="svg5"
   inkscape:version="1.1.1 (3bf5ae0d25, 2021-09-20)"
   sodipodi:docname="buttons.svg"
   xmlns:inkscape="http://www.inkscape.org/namespaces/inkscape"
   xmlns:sodipodi="http://sodipodi.sourceforge.net/DTD/sodipodi-0.dtd"
   xmlns="http://www.w3.org/2000/svg"
   xmlns:svg="http://www.w3.org/2000/svg">
  <sodipodi:namedview
     id="namedview7"
     pagecolor="#505050"
     bordercolor="#eeeeee"
     borderopacity="1"
     inkscape:pageshadow="0"
     inkscape:pageopacity="0"
     inkscape:pagecheckerboard="0"
     inkscape:document-units="px"
     showgrid="false"
     units="px"
     showborder="true"
     width="16px"
     inkscape:zoom="13.879221"
     inkscape:cx="15.346683"
     inkscape:cy="11.56405"
     inkscape:window-width="1331"
     inkscape:window-height="740"
     inkscape:window-x="37"
     inkscape:window-y="0"
     inkscape:window-maximized="0"
     inkscape:current-layer="layer2" />
  <defs
     id="defs2">
    <inkscape:perspective
       sodipodi:type="inkscape:persp3d"
       inkscape:vp_x="0 : 2.1166667 : 1"
       inkscape:vp_y="0 : 1000 : 0"
       inkscape:vp_z="4.2333332 : 2.1166667 : 1"
       inkscape:persp3d-origin="2.1166666 : 1.4111112 : 1"
       id="perspective4507" />
  </defs>
  <g
     inkscape:label="intersec_normal"
     inkscape:groupmode="layer"
     id="layer1"
     style="display:none">
    <path
       id="path1075"
       style="fill:#666666;fill-opacity:0.75;stroke-width:5.34939;stroke-dasharray:16.0481, 5.34939"
       d="M 8,0 A 8.0000004,8.0000004 0 0 0 0,8 8.0000004,8.0000004 0 0 0 8,16 8.0000004,8.0000004 0 0 0 16,8 8.0000004,8.0000004 0 0 0 8,0 Z M 8,2 A 5.9999999,5.9999999 0 0 1 14,8 5.9999999,5.9999999 0 0 1 8,14 5.9999999,5.9999999 0 0 1 2,8 5.9999999,5.9999999 0 0 1 8,2 Z"
       transform="scale(0.26458333)" />
  </g>
  <g
     inkscape:label="intersec_selected"
     inkscape:groupmode="layer"
     id="g1241"
     style="display:none">
    <path
       id="path1237"
       style="fill:#05ffff;fill-opacity:1;stroke-width:5.34939;stroke-dasharray:16.0481, 5.34939"
       d="M 8,0 A 8.0000004,8.0000004 0 0 0 0,8 8.0000004,8.0000004 0 0 0 8,16 8.0000004,8.0000004 0 0 0 16,8 8.0000004,8.0000004 0 0 0 8,0 Z M 8,2 A 5.9999999,5.9999999 0 0 1 14,8 5.9999999,5.9999999 0 0 1 8,14 5.9999999,5.9999999 0 0 1 2,8 5.9999999,5.9999999 0 0 1 8,2 Z"
       transform="scale(0.26458333)" />
  </g>
  <g
     inkscape:label="intersec_hover"
     inkscape:groupmode="layer"
     id="g1689"
     style="display:none">
    <path
       id="path1685"
       style="fill:#ffffff;fill-opacity:1;stroke-width:3.77953;stroke-dasharray:11.3386, 3.77953"
       d="M 7,0 V 7 H 0 v 2 h 7 v 7 H 9 V 9 h 7 V 7 H 9 V 0 Z"
       transform="scale(0.26458333)" />
    <path
       id="path1687"
       style="fill:#ffffff;fill-opacity:1;stroke-width:5.34939;stroke-dasharray:16.0481, 5.34939"
       d="M 8,0 A 8.0000004,8.0000004 0 0 0 0,8 8.0000004,8.0000004 0 0 0 8,16 8.0000004,8.0000004 0 0 0 16,8 8.0000004,8.0000004 0 0 0 8,0 Z M 8,2 A 5.9999999,5.9999999 0 0 1 14,8 5.9999999,5.9999999 0 0 1 8,14 5.9999999,5.9999999 0 0 1 2,8 5.9999999,5.9999999 0 0 1 8,2 Z"
       transform="scale(0.26458333)" />
  </g>
  <g
     inkscape:label="axial_x_normal"
     inkscape:groupmode="layer"
     id="g3206"
     style="display:none">
    <path
       id="path3202"
       style="fill:#666666;fill-opacity:1;stroke-width:1;stroke-dasharray:3, 1"
       d="m 1.8520833,0 c 0,1.4111111 0,2.8222223 0,4.2333333 0.1763889,0 0.3527778,0 0.5291667,0 0,-1.411111 0,-2.8222222 0,-4.2333333 C 2.2048611,0 2.0284722,0 1.8520833,0 Z M 0.79374999,1.5875 c 0,0.3527777 0,0.7055555 0,1.0583333 0.1763889,0 0.35277781,0 0.52916661,0 0,-0.3527778 0,-0.7055556 0,-1.0583333 -0.1763888,0 -0.35277771,0 -0.52916661,0 z m 2.11666661,0 c 0,0.3527777 0,0.7055555 0,1.0583333 0.176389,0 0.3527777,0 0.5291667,0 0,-0.3527778 0,-0.7055556 0,-1.0583333 -0.176389,0 -0.3527777,0 -0.5291667,0 z" />
  </g>
  <g
     inkscape:label="axial_x_selected"
     inkscape:groupmode="layer"
     id="g3562"
     style="display:none">
    <path
       id="path3560"
       style="fill:#00ffff;fill-opacity:1;stroke-width:1;stroke-dasharray:3, 1"
       d="m 1.8520833,0 c 0,1.4111111 0,2.8222223 0,4.2333333 0.1763889,0 0.3527778,0 0.5291667,0 0,-1.411111 0,-2.8222222 0,-4.2333333 C 2.2048611,0 2.0284722,0 1.8520833,0 Z M 0.79374999,1.5875 c 0,0.3527777 0,0.7055555 0,1.0583333 0.1763889,0 0.35277781,0 0.52916661,0 0,-0.3527778 0,-0.7055556 0,-1.0583333 -0.1763888,0 -0.35277771,0 -0.52916661,0 z m 2.11666661,0 c 0,0.3527777 0,0.7055555 0,1.0583333 0.176389,0 0.3527777,0 0.5291667,0 0,-0.3527778 0,-0.7055556 0,-1.0583333 -0.176389,0 -0.3527777,0 -0.5291667,0 z" />
  </g>
  <g
     inkscape:label="axial_y_normal"
     inkscape:groupmode="layer"
     id="g3985"
     style="display:none">
    <path
       id="path3983"
       style="fill:#666666;fill-opacity:1;stroke-width:1;stroke-dasharray:3, 1"
       d="m 0,2.38125 c 1.4111111,0 2.8222223,0 4.2333333,0 0,-0.1763889 0,-0.3527778 0,-0.5291667 -1.411111,0 -2.8222222,0 -4.2333333,0 0,0.1763889 0,0.3527778 0,0.5291667 z m 1.5875,1.0583333 c 0.3527777,0 0.7055555,0 1.0583333,0 0,-0.1763889 0,-0.3527778 0,-0.5291666 -0.3527778,0 -0.7055556,0 -1.0583333,0 0,0.1763888 0,0.3527777 0,0.5291666 z m 0,-2.1166666 c 0.3527777,0 0.7055555,0 1.0583333,0 0,-0.176389 0,-0.35277771 0,-0.52916671 -0.3527778,0 -0.7055556,0 -1.0583333,0 0,0.176389 0,0.35277771 0,0.52916671 z" />
  </g>
  <g
     inkscape:label="axial_y_selected"
     inkscape:groupmode="layer"
     id="g4205"
     style="display:none">
    <path
       id="path4203"
       style="fill:#00ffff;fill-opacity:1;stroke-width:1;stroke-dasharray:3, 1"
       d="m 0,2.38125 c 1.4111111,0 2.8222223,0 4.2333333,0 0,-0.1763889 0,-0.3527778 0,-0.5291667 -1.411111,0 -2.8222222,0 -4.2333333,0 0,0.1763889 0,0.3527778 0,0.5291667 z m 1.5875,1.0583333 c 0.3527777,0 0.7055555,0 1.0583333,0 0,-0.1763889 0,-0.3527778 0,-0.5291666 -0.3527778,0 -0.7055556,0 -1.0583333,0 0,0.1763888 0,0.3527777 0,0.5291666 z m 0,-2.1166666 c 0.3527777,0 0.7055555,0 1.0583333,0 0,-0.176389 0,-0.35277771 0,-0.52916671 -0.3527778,0 -0.7055556,0 -1.0583333,0 0,0.176389 0,0.35277771 0,0.52916671 z" />
  </g>
  <g
     inkscape:label="axial_xy_normal"
     inkscape:groupmode="layer"
     id="g5253"
     style="display:none">
    <path
       id="path5251"
       style="fill:#666666;fill-opacity:1;stroke-width:3.77953;stroke-dasharray:11.3386, 3.77953"
       d="M 7,0 V 7 H 0 v 2 h 7 v 7 H 9 V 9 h 7 V 7 H 9 V 0 Z M 3,3 V 5 H 5 V 3 Z m 8,0 v 2 h 2 V 3 Z m -8,8 v 2 h 2 v -2 z m 8,0 v 2 h 2 v -2 z"
       transform="scale(0.26458333)" />
  </g>
  <g
     inkscape:label="axial_xy_selected"
     inkscape:groupmode="layer"
     id="g4800"
     style="display:none">
    <path
       id="path4798"
       style="fill:#00ffff;fill-opacity:1;stroke-width:3.77953;stroke-dasharray:11.3386, 3.77953"
       d="M 7,0 V 7 H 0 v 2 h 7 v 7 H 9 V 9 h 7 V 7 H 9 V 0 Z M 3,3 V 5 H 5 V 3 Z m 8,0 v 2 h 2 V 3 Z m -8,8 v 2 h 2 v -2 z m 8,0 v 2 h 2 v -2 z"
       transform="scale(0.26458333)" />
  </g>
  <g
     inkscape:label="central_normal"
     inkscape:groupmode="layer"
     id="g5257"
     style="display:none">
    <path
       id="path5597"
       style="fill:#666666;fill-opacity:1;stroke-width:3.77953;stroke-dasharray:11.3386, 3.77953"
       d="m 13,1 v 4 h 2 V 1 Z m -3,4 v 1 h 1 V 5 Z M 7,7 V 9 H 9 V 7 Z m -2,3 v 1 h 1 v -1 z m -4,1 v 4 h 2 v -4 z"
       transform="scale(0.26458333)" />
  </g>
  <g
     inkscape:label="central_selected"
     inkscape:groupmode="layer"
     id="g8643"
     style="display:none">
    <path
       id="path8633"
       style="fill:#00ffff;fill-opacity:1;stroke-width:3.77953;stroke-dasharray:11.3386, 3.77953"
       d="m 13,1 v 4 h 2 V 1 Z m -3,4 v 1 h 1 V 5 Z M 7,7 V 9 H 9 V 7 Z m -2,3 v 1 h 1 v -1 z m -4,1 v 4 h 2 v -4 z"
       transform="scale(0.26458333)" />
  </g>
  <g
     inkscape:groupmode="layer"
     id="layer2"
     inkscape:label="add_normal"
     style="display:inline">
    <path
       id="rect846-3"
       style="display:inline;fill:#666666;stroke-width:1;stroke-dasharray:3, 1"
       d="M 1.8520833,0 V 1.8520833 H 2.4999997e-8 L 0,2.38125 H 1.8520833 V 4.2333333 H 2.38125 V 2.38125 H 4.2333333 V 1.8520833 H 2.38125 V 0 Z"
       sodipodi:nodetypes="ccccccccccccc" />
  </g>
  <g
     inkscape:groupmode="layer"
     id="g1378"
     inkscape:label="add_selected"
     style="display:none">
    <path
       id="path1376"
       style="display:inline;fill:#00ffff;fill-opacity:1;stroke-width:1;stroke-dasharray:3, 1"
       d="M 1.5875,0 V 1.5875 H 2.4999997e-8 L 0,2.6458333 h 1.5875 v 1.5875 h 1.0583333 v -1.5875 h 1.5875 V 1.5875 h -1.5875 V 0 Z"
       sodipodi:nodetypes="ccccccccccccc" />
  </g>
  <g
     inkscape:groupmode="layer"
     id="g2721"
     inkscape:label="rm_normal"
     style="display:none">
    <path
       id="path2719"
       style="display:inline;fill:#666666;stroke-width:1;stroke-dasharray:3, 1"
       d="M 2.4999997e-8,1.5875 0,2.6458333 H 4.2333333 V 1.5875 Z"
       sodipodi:nodetypes="ccccc" />
  </g>
  <g
     inkscape:groupmode="layer"
     id="g2862"
     inkscape:label="rm_selected"
     style="display:none">
    <path
       id="path2860"
       style="display:inline;fill:#00ffff;fill-opacity:1;stroke-width:1;stroke-dasharray:3, 1"
       d="M 2.4999997e-8,1.5875 0,2.6458333 H 4.2333333 V 1.5875 Z"
       sodipodi:nodetypes="ccccc" />
  </g>
</svg>
