<?xml version="1.0" encoding="UTF-8" standalone="no"?>
<!-- Created with Inkscape (http://www.inkscape.org/) -->

<svg
   width="16"
   height="16"
   viewBox="0 0 4.2333332 4.2333335"
   version="1.1"
   id="svg5"
   inkscape:version="1.1.1 (3bf5ae0d25, 2021-09-20)"
   sodipodi:docname="buttons.svg"
   xmlns:inkscape="http://www.inkscape.org/namespaces/inkscape"
   xmlns:sodipodi="http://sodipodi.sourceforge.net/DTD/sodipodi-0.dtd"
   xmlns="http://www.w3.org/2000/svg"
   xmlns:svg="http://www.w3.org/2000/svg">
  <sodipodi:namedview
     id="namedview7"
     pagecolor="#505050"
     bordercolor="#eeeeee"
     borderopacity="1"
     inkscape:pageshadow="0"
     inkscape:pageopacity="0"
     inkscape:pagecheckerboard="0"
     inkscape:document-units="px"
     showgrid="false"
     units="px"
     showborder="true"
     width="16px"
     inkscape:zoom="20.55368"
     inkscape:cx="7.6628613"
     inkscape:cy="8.6845762"
     inkscape:window-width="1329"
     inkscape:window-height="740"
     inkscape:window-x="37"
     inkscape:window-y="0"
     inkscape:window-maximized="1"
     inkscape:current-layer="g1241" />
  <defs
     id="defs2" />
  <g
     inkscape:label="intersec_normal"
     inkscape:groupmode="layer"
     id="layer1"
     style="display:none">
    <path
       id="path1075"
       style="fill:#666666;fill-opacity:0.5;stroke-width:5.34939;stroke-dasharray:16.0481, 5.34939"
       d="M 8,0 A 8.0000004,8.0000004 0 0 0 0,8 8.0000004,8.0000004 0 0 0 8,16 8.0000004,8.0000004 0 0 0 16,8 8.0000004,8.0000004 0 0 0 8,0 Z M 8,2 A 5.9999999,5.9999999 0 0 1 14,8 5.9999999,5.9999999 0 0 1 8,14 5.9999999,5.9999999 0 0 1 2,8 5.9999999,5.9999999 0 0 1 8,2 Z"
       transform="scale(0.26458333)" />
    <path
       id="rect846"
       style="fill:#666666;fill-opacity:1;stroke-width:3.77953;stroke-dasharray:11.3386, 3.77953"
       d="M 7,0 V 7 H 0 v 2 h 7 v 7 H 9 V 9 h 7 V 7 H 9 V 0 Z"
       transform="scale(0.26458333)" />
  </g>
  <g
     inkscape:label="intersec_selected"
     inkscape:groupmode="layer"
     id="g1241"
     style="display:inline">
    <path
       id="path1237"
       style="fill:#05ffff;fill-opacity:1;stroke-width:5.34939;stroke-dasharray:16.0481, 5.34939"
       d="M 8,0 A 8.0000004,8.0000004 0 0 0 0,8 8.0000004,8.0000004 0 0 0 8,16 8.0000004,8.0000004 0 0 0 16,8 8.0000004,8.0000004 0 0 0 8,0 Z M 8,2 A 5.9999999,5.9999999 0 0 1 14,8 5.9999999,5.9999999 0 0 1 8,14 5.9999999,5.9999999 0 0 1 2,8 5.9999999,5.9999999 0 0 1 8,2 Z"
       transform="scale(0.26458333)" />
  </g>
  <g
     inkscape:label="intersec_hover"
     inkscape:groupmode="layer"
     id="g1689"
     style="display:none">
    <path
       id="path1685"
       style="fill:#00ffff;fill-opacity:1;stroke-width:3.77953;stroke-dasharray:11.3386, 3.77953"
       d="M 7,0 V 7 H 0 v 2 h 7 v 7 H 9 V 9 h 7 V 7 H 9 V 0 Z"
       transform="scale(0.26458333)" />
    <path
       id="path1687"
       style="fill:#00ffff;fill-opacity:1;stroke-width:5.34939;stroke-dasharray:16.0481, 5.34939"
       d="M 8,0 A 8.0000004,8.0000004 0 0 0 0,8 8.0000004,8.0000004 0 0 0 8,16 8.0000004,8.0000004 0 0 0 16,8 8.0000004,8.0000004 0 0 0 8,0 Z M 8,2 A 5.9999999,5.9999999 0 0 1 14,8 5.9999999,5.9999999 0 0 1 8,14 5.9999999,5.9999999 0 0 1 2,8 5.9999999,5.9999999 0 0 1 8,2 Z"
       transform="scale(0.26458333)" />
  </g>
  <g
     inkscape:groupmode="layer"
     id="layer2"
     inkscape:label="add_normal"
     style="display:none">
    <path
       id="rect846-3"
       style="display:inline;fill:#666666;stroke-width:1;stroke-dasharray:3, 1"
       d="M 1.5875,0 V 1.5875 H 2.4999997e-8 L 0,2.6458333 h 1.5875 v 1.5875 h 1.0583333 v -1.5875 h 1.5875 V 1.5875 h -1.5875 V 0 Z"
       sodipodi:nodetypes="ccccccccccccc" />
  </g>
  <g
     inkscape:groupmode="layer"
     id="g1378"
     inkscape:label="add_selected"
     style="display:none">
    <path
       id="path1376"
       style="display:inline;fill:#00ffff;fill-opacity:1;stroke-width:1;stroke-dasharray:3, 1"
       d="M 1.5875,0 V 1.5875 H 2.4999997e-8 L 0,2.6458333 h 1.5875 v 1.5875 h 1.0583333 v -1.5875 h 1.5875 V 1.5875 h -1.5875 V 0 Z"
       sodipodi:nodetypes="ccccccccccccc" />
  </g>
</svg>
