[gd_scene load_steps=2 format=2]

[ext_resource path="res://scripts/smart_area2d.gd" type="Script" id=1]

[node name="shape_area2d" type="Area2D"]
input_pickable = false
script = ExtResource( 1 )

[node name="collision" type="CollisionPolygon2D" parent="."]

[node name="line" type="Line2D" parent="."]
width = 1.0
default_color = Color( 1, 0, 0, 1 )

[node name="surface" type="Polygon2D" parent="."]
