[gd_scene load_steps=7 format=2]

[ext_resource path="res://scripts/zellij/unit.gd" type="Script" id=1]
[ext_resource path="res://themes/buttons/intersec_selected.svg" type="Texture" id=2]
[ext_resource path="res://themes/buttons/intersec_hover.svg" type="Texture" id=3]
[ext_resource path="res://scripts/smart_button.gd" type="Script" id=4]
[ext_resource path="res://themes/buttons/intersec_normal.svg" type="Texture" id=5]
[ext_resource path="res://themes/rubik-medium12.theme" type="Theme" id=6]

[node name="unit" type="Node2D"]
position = Vector2( 468.5, 184 )
script = ExtResource( 1 )

[node name="shape_svg" type="Sprite" parent="."]
centered = false

[node name="segment_tmpl" type="Line2D" parent="."]
visible = false
points = PoolVector2Array( 257.401, 156.901 )
width = 1.0
default_color = Color( 0, 1, 1, 0.498039 )

[node name="shape_tmpl" type="Node2D" parent="."]
visible = false

[node name="border" type="Line2D" parent="shape_tmpl"]
visible = false
points = PoolVector2Array( 257.401, 156.901 )
width = 1.0
default_color = Color( 0, 1, 1, 1 )

[node name="circle" type="Node2D" parent="."]

[node name="segments" type="Node2D" parent="."]

[node name="shapes" type="Node2D" parent="."]

[node name="shape_border" type="Line2D" parent="."]
visible = false
points = PoolVector2Array( 257.401, 156.901 )
width = 1.0
default_color = Color( 0, 1, 1, 0.784314 )
antialiased = true

[node name="btn_tmpl" type="TextureButton" parent="."]
visible = false
margin_right = 16.0
margin_bottom = 16.0
focus_mode = 0
toggle_mode = true
enabled_focus_mode = 0
keep_pressed_outside = true
texture_normal = ExtResource( 5 )
texture_pressed = ExtResource( 2 )
texture_hover = ExtResource( 3 )
script = ExtResource( 4 )
__meta__ = {
"_edit_use_anchors_": false
}

[node name="lbl" type="Label" parent="btn_tmpl"]
margin_left = 11.0
margin_top = -8.0
margin_right = 51.0
margin_bottom = 6.0
text = "01"
__meta__ = {
"_edit_use_anchors_": false
}

[node name="nodes" type="Control" parent="."]
theme = ExtResource( 6 )
__meta__ = {
"_edit_use_anchors_": false
}

[node name="labels" type="Control" parent="."]
margin_right = 40.0
margin_bottom = 40.0
theme = ExtResource( 6 )
__meta__ = {
"_edit_use_anchors_": false
}
