[gd_scene load_steps=4 format=2]

[ext_resource path="res://research/tiling_auto.gd" type="Script" id=1]
[ext_resource path="res://research/smart_area2d.gd" type="Script" id=2]
[ext_resource path="res://themes/rubik-info.theme" type="Theme" id=3]

[node name="tiling_auto" type="Node2D"]
script = ExtResource( 1 )
_edges = 4

[node name="base" type="Polygon2D" parent="."]
position = Vector2( 312, 248 )
polygon = PoolVector2Array( 100, 0, 76.6044, 64.2788, 17.3648, 98.4808, -50, 86.6025, -93.9693, 34.202, -93.9693, -34.202, -50, -86.6025, 17.3648, -98.4808, 76.6044, -64.2788 )

[node name="area" type="Area2D" parent="."]
visible = false
script = ExtResource( 2 )

[node name="poly" type="CollisionPolygon2D" parent="area"]

[node name="name" type="Label" parent="area"]
margin_top = -10.0
margin_right = 40.0
margin_bottom = 12.0
theme = ExtResource( 3 )
custom_colors/font_color = Color( 0, 0, 0, 1 )
text = "name"

[node name="clones" type="Node2D" parent="."]

[node name="to_validate" type="Node2D" parent="."]
